[
	{ "value": " B.E " },
	{ "value": "B.A" },
	{ "value": "B.Arch" },
	{ "value": "B.Com" },
	{ "value": "B.Sc" },
	{ "value": "B.Tech" },
	{ "value": "BBA" },
	{ "value": "BCA" },
	{ "value": "DEEE" },
	{ "value": "Diploma" },
	{ "value": "Dual Degree" },
	{ "value": "Intermediate" },
	{ "value": "M.A" },
	{ "value": "M.E" },
	{ "value": "M.Sc" },
	{ "value": "M.Sc(Integrated)" },
	{ "value": "M.Tech" },
	{ "value": "MBA" },
	{ "value": "MCA" },
	{ "value": "MS" },
	{ "value": "Ph.D" },
	{ "value": "Other" }
]